<svg width="20" height="17" viewBox="0 0 20 17" fill="none" xmlns="http://www.w3.org/2000/svg">
<path d="M20 1.92383C19.2511 2.2558 18.4565 2.47356 17.643 2.56983C18.4986 2.05672 19.1384 1.24989 19.443 0.299829C18.6377 0.779291 17.7563 1.1175 16.837 1.29983C16.2183 0.644146 15.401 0.210296 14.5113 0.0652324C13.6216 -0.0798312 12.7088 0.0719548 11.9139 0.497167C11.119 0.922378 10.4861 1.59738 10.1129 2.41801C9.73973 3.23863 9.64699 4.15926 9.849 5.03783C8.21781 4.95618 6.62202 4.53241 5.16524 3.79402C3.70845 3.05563 2.42323 2.01914 1.393 0.751829C0.868947 1.65509 0.70847 2.724 0.944181 3.74133C1.17989 4.75866 1.79411 5.64807 2.662 6.22883C2.00926 6.20908 1.37075 6.03317 0.8 5.71583C0.788614 6.67327 1.1122 7.60459 1.7148 8.34871C2.31739 9.09282 3.1611 9.60294 4.1 9.79083C3.49571 9.95491 2.86194 9.97885 2.247 9.86083C2.50902 10.6761 3.01938 11.3891 3.70668 11.8999C4.39397 12.4108 5.22379 12.694 6.08 12.7098C4.35888 14.0602 2.1719 14.6717 0 14.4098C1.87639 15.6149 4.05999 16.2543 6.29 16.2518C7.87046 16.2625 9.43643 15.9501 10.8918 15.3339C12.3472 14.7176 13.6613 13.8104 14.7534 12.6679C15.8456 11.5255 16.6928 10.1719 17.243 8.69028C17.7932 7.20865 18.0348 5.63021 17.953 4.05183C18.7563 3.46966 19.4494 2.74908 20 1.92383Z" fill="white"/>
</svg>
