<svg width="20" height="20" viewBox="0 0 20 20" fill="none" xmlns="http://www.w3.org/2000/svg">
<path d="M10 10C9.0111 10 8.0444 9.70676 7.22215 9.15735C6.39991 8.60794 5.75904 7.82708 5.38061 6.91345C5.00217 5.99982 4.90315 4.99444 5.09608 4.02454C5.289 3.05463 5.76521 2.16374 6.46447 1.46448C7.16373 0.765217 8.05465 0.288998 9.02455 0.0960714C9.99445 -0.0968547 10.9998 0.00217915 11.9134 0.380617C12.8271 0.759055 13.6079 1.39992 14.1574 2.22217C14.7068 3.04442 15 4.0111 15 5C15 6.32608 14.4732 7.59784 13.5355 8.53552C12.5979 9.47321 11.3261 10 10 10ZM10 2.5C9.50555 2.5 9.0222 2.64669 8.61107 2.92139C8.19995 3.19609 7.87952 3.58652 7.6903 4.04334C7.50108 4.50015 7.45158 5.00272 7.54804 5.48767C7.6445 5.97263 7.8826 6.41819 8.23223 6.76782C8.58186 7.11746 9.02733 7.35544 9.51228 7.45191C9.99723 7.54837 10.4999 7.49891 10.9567 7.30969C11.4135 7.12048 11.804 6.80004 12.0787 6.38892C12.3534 5.9778 12.5 5.49446 12.5 5C12.5 4.33696 12.2366 3.70102 11.7678 3.23218C11.2989 2.76334 10.663 2.5 10 2.5Z" fill="white"/>
<path d="M20 20H0V18.75C0 14.334 4.113 11.25 10 11.25C15.887 11.25 20 14.334 20 18.75V20ZM2.7 17.5H17.3C16.552 15.24 13.759 13.75 10 13.75C6.241 13.75 3.446 15.24 2.7 17.5Z" fill="white"/>
</svg>
