<svg width="16" height="16" viewBox="0 0 16 16" fill="none" xmlns="http://www.w3.org/2000/svg">
<path d="M8 12.065L12.947 15.665L11.053 9.85203L16 6.33203H9.933L8 0.332031L6.067 6.33203H0L4.947 9.85203L3.053 15.665L8 12.065Z" fill="#ECA52C"/>
</svg>
